…
Mean and median total number of steps taken per day



```r
# Determine the mean & median steps per day
stepsMeanMedian <- na.omit(activity) %>% group_by(date) %>% summarise(stepsMean = mean(steps), stepsMedian = median(steps))

# Display the records 
stepsMeanMedian
```

```
## # A tibble: 53 x 3
##          date stepsMean stepsMedian
##        <date>     <dbl>       <dbl>
##  1 2012-10-02   0.43750           0
##  2 2012-10-03  39.41667           0
##  3 2012-10-04  42.06944           0
##  4 2012-10-05  46.15972           0
##  5 2012-10-06  53.54167           0
##  6 2012-10-07  38.24653           0
##  7 2012-10-09  44.48264           0
##  8 2012-10-10  34.37500           0
##  9 2012-10-11  35.77778           0
## 10 2012-10-12  60.35417           0
## # ... with 43 more rows
```
…
